Session 2 lab exercise: Exploration of contraceptive use data • session2
…
Next, pivot this into a longer table by putting the “using” and “not using” columns into a single column called “contraceptive”. This pivot is necessary to make the data “tidy”.

cusebyage <- pivot_longer(cusebyage0,
      cols = using:"not using",
      values_to = "n",
      names_to = "contraceptive")
cusebyage

## # A tibble: 32 x 5
## # Groups:   age, education [8]
##    age   education wantsMore contraceptive     n
##    <fct> <fct>     <fct>     <chr>         <dbl>
##  1 <25   low       no        using             4
##  2 <25   low       no        not using        10
##  3 <25   low       yes       using             6
##  4 <25   low       yes       not using        53
##  5 <25   high      no        using            10
##  6 <25   high      no        not using        50
##  7 <25   high      yes       using            52
##  8 <25   high      yes       not using       212
##  9 25-29 low       no        using            10
## 10 25-29 low       no        not using        19
## # … with 22 more rows
…
Figure 1: contraceptive use in the study sample. Bar plot is organized by age group and stacked by self-report of whether participant wants more children. The fraction of women wanting more children decreases with age, becoming a minority in the 40-49 age group. One unexpected observation in this bar chart is that in the <25 age group, those reporting wanting more children appear more likely to report using contraceptives. Is this the case? One way to make this more visually clear would be to use percentages, instead of counts, on the vertical scale. Try this, by changing weight = n to weight = percent to use the “percent” column as heights instead of the “n” column. While you’re at it, change the y label to reflect this change.

Note: The caption option in ggplot2 is suitable for smaller, embedded captions. But for publication the caption usually needs to be in separated text.

Try yourself: plot percentages instead of counts

Here’s some code to calculate the percentages.

cusebyage <- group_by(cusebyage, age, wantsMore) %>% 
    mutate(percent = n / sum(n) * 100)
cusebyage

## # A tibble: 32 x 6
## # Groups:   age, wantsMore [8]
##    age   education wantsMore contraceptive     n percent
##    <fct> <fct>     <fct>     <chr>         <dbl>   <dbl>
##  1 <25   low       no        using             4    5.41
##  2 <25   low       no        not using        10   13.5 
##  3 <25   low       yes       using             6    1.86
##  4 <25   low       yes       not using        53   16.4 
##  5 <25   high      no        using            10   13.5 
##  6 <25   high      no        not using        50   67.6 
##  7 <25   high      yes       using            52   16.1 
##  8 <25   high      yes       not using       212   65.6 
##  9 25-29 low       no        using            10    8.26
## 10 25-29 low       no        not using        19   15.7 
## # … with 22 more rows
…
